-- Merging decision tree log ---
manifest
ADDED from /Users/cisystem/Desktop/Sky+++/Cfdcome/android/app/src/main/AndroidManifest.xml:1:1-35:12
	package
		ADDED from /Users/cisystem/Desktop/Sky+++/Cfdcome/android/app/src/main/AndroidManifest.xml:2:5-26
		INJECTED from /Users/cisystem/Desktop/Sky+++/Cfdcome/android/app/src/main/AndroidManifest.xml
		INJECTED from /Users/cisystem/Desktop/Sky+++/Cfdcome/android/app/src/main/AndroidManifest.xml
	android:versionName
		ADDED from /Users/cisystem/Desktop/Sky+++/Cfdcome/android/app/src/main/AndroidManifest.xml:4:5-30
		INJECTED from /Users/cisystem/Desktop/Sky+++/Cfdcome/android/app/src/main/AndroidManifest.xml
		INJECTED from /Users/cisystem/Desktop/Sky+++/Cfdcome/android/app/src/main/AndroidManifest.xml
	android:versionCode
		ADDED from /Users/cisystem/Desktop/Sky+++/Cfdcome/android/app/src/main/AndroidManifest.xml:3:5-28
		INJECTED from /Users/cisystem/Desktop/Sky+++/Cfdcome/android/app/src/main/AndroidManifest.xml
		INJECTED from /Users/cisystem/Desktop/Sky+++/Cfdcome/android/app/src/main/AndroidManifest.xml
	xmlns:android
		ADDED from /Users/cisystem/Desktop/Sky+++/Cfdcome/android/app/src/main/AndroidManifest.xml:1:11-69
uses-permission#android.permission.INTERNET
ADDED from /Users/cisystem/Desktop/Sky+++/Cfdcome/android/app/src/main/AndroidManifest.xml:6:5-67
	android:name
		ADDED from /Users/cisystem/Desktop/Sky+++/Cfdcome/android/app/src/main/AndroidManifest.xml:6:22-64
uses-permission#android.permission.SYSTEM_ALERT_WINDOW
ADDED from /Users/cisystem/Desktop/Sky+++/Cfdcome/android/app/src/main/AndroidManifest.xml:7:5-77
MERGED from [com.facebook.react:react-native:0.51.0] /Users/cisystem/.android/build-cache/9d7842047e669c52f173bf9ff4799f4befb6dac4/output/AndroidManifest.xml:11:5-78
	android:name
		ADDED from /Users/cisystem/Desktop/Sky+++/Cfdcome/android/app/src/main/AndroidManifest.xml:7:22-75
uses-permission#android.permission.CAMERA
ADDED from /Users/cisystem/Desktop/Sky+++/Cfdcome/android/app/src/main/AndroidManifest.xml:9:5-65
	android:name
		ADDED from /Users/cisystem/Desktop/Sky+++/Cfdcome/android/app/src/main/AndroidManifest.xml:9:22-62
uses-permission#android.permission.WRITE_EXTERNAL_STORAGE
ADDED from /Users/cisystem/Desktop/Sky+++/Cfdcome/android/app/src/main/AndroidManifest.xml:10:5-80
	android:name
		ADDED from /Users/cisystem/Desktop/Sky+++/Cfdcome/android/app/src/main/AndroidManifest.xml:10:22-78
uses-sdk
ADDED from /Users/cisystem/Desktop/Sky+++/Cfdcome/android/app/src/main/AndroidManifest.xml:12:5-14:41
MERGED from [Cfdcome:react-native-image-picker:unspecified] /Users/cisystem/Desktop/Sky+++/Cfdcome/node_modules/react-native-image-picker/android/build/intermediates/bundles/default/AndroidManifest.xml:7:5-9:41
MERGED from [com.facebook.react:react-native:0.51.0] /Users/cisystem/.android/build-cache/9d7842047e669c52f173bf9ff4799f4befb6dac4/output/AndroidManifest.xml:7:5-9:41
MERGED from [com.android.support:appcompat-v7:23.0.1] /Users/cisystem/.android/build-cache/83c51627ccde557b4f7e97c37596d076a27c4d97/output/AndroidManifest.xml:20:5-43
MERGED from [com.android.support:support-v4:23.0.1] /Users/cisystem/.android/build-cache/8db36c8301de3e748e2d536f32d022a164b49277/output/AndroidManifest.xml:20:5-43
MERGED from [com.facebook.fbui.textlayoutbuilder:textlayoutbuilder:1.0.0] /Users/cisystem/.android/build-cache/eb2fc1eec4cba6fe7e8380280102649807faa7a6/output/AndroidManifest.xml:14:5-16:41
MERGED from [com.facebook.fresco:fresco:1.3.0] /Users/cisystem/.android/build-cache/19e7533dfbc291cc5bfc0f6561169c85562d1a07/output/AndroidManifest.xml:5:5-7:41
MERGED from [com.facebook.fresco:drawee:1.3.0] /Users/cisystem/.android/build-cache/127a78e23a1aa571e33e71c4058559ac7e6c4ed3/output/AndroidManifest.xml:5:5-7:41
MERGED from [com.facebook.fresco:imagepipeline-okhttp3:1.3.0] /Users/cisystem/.android/build-cache/3dd367144854f81f97605d4d6a3437af0d7cb28b/output/AndroidManifest.xml:5:5-7:41
MERGED from [com.facebook.fresco:imagepipeline:1.3.0] /Users/cisystem/.android/build-cache/bbfd8efb11ea2dbd84217630aacbb103e11d8334/output/AndroidManifest.xml:5:5-7:41
MERGED from [com.facebook.fresco:imagepipeline-base:1.3.0] /Users/cisystem/.android/build-cache/b47fd04eada6de51b43a38cbb3646e27235dc85c/output/AndroidManifest.xml:5:5-7:41
MERGED from [com.facebook.fresco:fbcore:1.3.0] /Users/cisystem/.android/build-cache/ac0ec7b97e0980c48a962593888336923aa2ca6b/output/AndroidManifest.xml:5:5-7:41
MERGED from [com.facebook.soloader:soloader:0.1.0] /Users/cisystem/.android/build-cache/82ae25a58c5414daccb3a1c038ac0b8e975402e7/output/AndroidManifest.xml:2:3-70
	android:targetSdkVersion
		ADDED from /Users/cisystem/Desktop/Sky+++/Cfdcome/android/app/src/main/AndroidManifest.xml:14:9-38
		INJECTED from /Users/cisystem/Desktop/Sky+++/Cfdcome/android/app/src/main/AndroidManifest.xml
		INJECTED from /Users/cisystem/Desktop/Sky+++/Cfdcome/android/app/src/main/AndroidManifest.xml
	android:minSdkVersion
		ADDED from /Users/cisystem/Desktop/Sky+++/Cfdcome/android/app/src/main/AndroidManifest.xml:13:9-35
		INJECTED from /Users/cisystem/Desktop/Sky+++/Cfdcome/android/app/src/main/AndroidManifest.xml
		INJECTED from /Users/cisystem/Desktop/Sky+++/Cfdcome/android/app/src/main/AndroidManifest.xml
application
ADDED from /Users/cisystem/Desktop/Sky+++/Cfdcome/android/app/src/main/AndroidManifest.xml:16:5-33:19
MERGED from [Cfdcome:react-native-image-picker:unspecified] /Users/cisystem/Desktop/Sky+++/Cfdcome/node_modules/react-native-image-picker/android/build/intermediates/bundles/default/AndroidManifest.xml:11:5-21:19
MERGED from [com.facebook.react:react-native:0.51.0] /Users/cisystem/.android/build-cache/9d7842047e669c52f173bf9ff4799f4befb6dac4/output/AndroidManifest.xml:13:5-20
MERGED from [com.android.support:appcompat-v7:23.0.1] /Users/cisystem/.android/build-cache/83c51627ccde557b4f7e97c37596d076a27c4d97/output/AndroidManifest.xml:22:5-20
MERGED from [com.android.support:support-v4:23.0.1] /Users/cisystem/.android/build-cache/8db36c8301de3e748e2d536f32d022a164b49277/output/AndroidManifest.xml:22:5-20
MERGED from [com.facebook.soloader:soloader:0.1.0] /Users/cisystem/.android/build-cache/82ae25a58c5414daccb3a1c038ac0b8e975402e7/output/AndroidManifest.xml:3:3-17
MERGED from [org.webkit:android-jsc:r174650] /Users/cisystem/.android/build-cache/a58c5b88804b2ea41846278c5ac88fbb75a7fb1c/output/AndroidManifest.xml:2:3-17
	android:label
		ADDED from /Users/cisystem/Desktop/Sky+++/Cfdcome/android/app/src/main/AndroidManifest.xml:19:7-39
	android:allowBackup
		ADDED from /Users/cisystem/Desktop/Sky+++/Cfdcome/android/app/src/main/AndroidManifest.xml:18:7-33
	android:icon
		ADDED from /Users/cisystem/Desktop/Sky+++/Cfdcome/android/app/src/main/AndroidManifest.xml:20:7-41
	android:theme
		ADDED from /Users/cisystem/Desktop/Sky+++/Cfdcome/android/app/src/main/AndroidManifest.xml:21:7-38
	android:name
		ADDED from /Users/cisystem/Desktop/Sky+++/Cfdcome/android/app/src/main/AndroidManifest.xml:17:7-38
activity#com.cfdcome.MainActivity
ADDED from /Users/cisystem/Desktop/Sky+++/Cfdcome/android/app/src/main/AndroidManifest.xml:22:7-31:18
	android:label
		ADDED from /Users/cisystem/Desktop/Sky+++/Cfdcome/android/app/src/main/AndroidManifest.xml:24:9-41
	android:windowSoftInputMode
		ADDED from /Users/cisystem/Desktop/Sky+++/Cfdcome/android/app/src/main/AndroidManifest.xml:26:9-51
	android:configChanges
		ADDED from /Users/cisystem/Desktop/Sky+++/Cfdcome/android/app/src/main/AndroidManifest.xml:25:9-79
	android:name
		ADDED from /Users/cisystem/Desktop/Sky+++/Cfdcome/android/app/src/main/AndroidManifest.xml:23:9-37
intent-filter#android.intent.action.MAIN+android.intent.category.LAUNCHER
ADDED from /Users/cisystem/Desktop/Sky+++/Cfdcome/android/app/src/main/AndroidManifest.xml:27:9-30:25
action#android.intent.action.MAIN
ADDED from /Users/cisystem/Desktop/Sky+++/Cfdcome/android/app/src/main/AndroidManifest.xml:28:13-65
	android:name
		ADDED from /Users/cisystem/Desktop/Sky+++/Cfdcome/android/app/src/main/AndroidManifest.xml:28:21-62
category#android.intent.category.LAUNCHER
ADDED from /Users/cisystem/Desktop/Sky+++/Cfdcome/android/app/src/main/AndroidManifest.xml:29:13-73
	android:name
		ADDED from /Users/cisystem/Desktop/Sky+++/Cfdcome/android/app/src/main/AndroidManifest.xml:29:23-70
activity#com.facebook.react.devsupport.DevSettingsActivity
ADDED from /Users/cisystem/Desktop/Sky+++/Cfdcome/android/app/src/main/AndroidManifest.xml:32:7-84
	android:name
		ADDED from /Users/cisystem/Desktop/Sky+++/Cfdcome/android/app/src/main/AndroidManifest.xml:32:17-81
provider#android.support.v4.content.FileProvider
ADDED from [Cfdcome:react-native-image-picker:unspecified] /Users/cisystem/Desktop/Sky+++/Cfdcome/node_modules/react-native-image-picker/android/build/intermediates/bundles/default/AndroidManifest.xml:12:9-20:20
	android:authorities
		ADDED from [Cfdcome:react-native-image-picker:unspecified] /Users/cisystem/Desktop/Sky+++/Cfdcome/node_modules/react-native-image-picker/android/build/intermediates/bundles/default/AndroidManifest.xml:14:13-60
	android:grantUriPermissions
		ADDED from [Cfdcome:react-native-image-picker:unspecified] /Users/cisystem/Desktop/Sky+++/Cfdcome/node_modules/react-native-image-picker/android/build/intermediates/bundles/default/AndroidManifest.xml:16:13-47
	android:exported
		ADDED from [Cfdcome:react-native-image-picker:unspecified] /Users/cisystem/Desktop/Sky+++/Cfdcome/node_modules/react-native-image-picker/android/build/intermediates/bundles/default/AndroidManifest.xml:15:13-37
	android:name
		ADDED from [Cfdcome:react-native-image-picker:unspecified] /Users/cisystem/Desktop/Sky+++/Cfdcome/node_modules/react-native-image-picker/android/build/intermediates/bundles/default/AndroidManifest.xml:13:13-67
meta-data#android.support.FILE_PROVIDER_PATHS
ADDED from [Cfdcome:react-native-image-picker:unspecified] /Users/cisystem/Desktop/Sky+++/Cfdcome/node_modules/react-native-image-picker/android/build/intermediates/bundles/default/AndroidManifest.xml:17:13-19:58
	android:resource
		ADDED from [Cfdcome:react-native-image-picker:unspecified] /Users/cisystem/Desktop/Sky+++/Cfdcome/node_modules/react-native-image-picker/android/build/intermediates/bundles/default/AndroidManifest.xml:19:17-55
	android:name
		ADDED from [Cfdcome:react-native-image-picker:unspecified] /Users/cisystem/Desktop/Sky+++/Cfdcome/node_modules/react-native-image-picker/android/build/intermediates/bundles/default/AndroidManifest.xml:18:17-67
uses-permission#android.permission.READ_PHONE_STATE
IMPLIED from /Users/cisystem/Desktop/Sky+++/Cfdcome/android/app/src/main/AndroidManifest.xml:1:1-35:12 reason: org.webkit.android_jsc has a targetSdkVersion < 4
uses-permission#android.permission.READ_EXTERNAL_STORAGE
IMPLIED from /Users/cisystem/Desktop/Sky+++/Cfdcome/android/app/src/main/AndroidManifest.xml:1:1-35:12 reason: org.webkit.android_jsc requested WRITE_EXTERNAL_STORAGE
